==========================================================
                          MEGA2 5.0.2
     Copyright 1999-2019, University of Pittsburgh. All Rights Reserved.
     Contributors to Mega2: Robert Baron, Justin R. Stickel, Charles P. Kollar,
     Nandita Mukhopadhyay, Lee Almasy, Mark Schroeder, William P. Mulvihill,
     and Daniel E. Weeks.


     Mega2 comes with ABSOLUTELY NO WARRANTY.
     See LICENSE.txt for terms of copying, modifying & redistributing Mega2.
==========================================================
NOTE: For humans, chromosome 23 codes for X, 24 codes for Y and 25 codes for XY.

Run date:                  2019-5-24-15-26

Running Mega2 in batch mode from MEGA2.BATCH_bcf2.

Input filenames and missing value indicator read in from batch file.
Dump Analysis option read in from batch file.
Keyword Input_Locus_File not in batch file, Locus file assumed to be unspecified.
Keyword Input_PLINK_Map_File not in batch file, PLINK map file assumed to be unspecified.
Keyword Input_Omit_File not in batch file, Omit file assumed to be unspecified.
Keyword Input_Aux_File not in batch file, Aux file assumed to be unspecified.
Keyword Input_Imputed_Info_File not in batch file, Imputed Info file assumed to be unspecified.
-----------------------------------------------------
        Mega2 version 5.0.2
Run date:                  2019-5-24-15-26
This file created on       Fri May 24 15:26:48 2019
Input file names
#       Pedigree file:               bed.fam
#            Map file:               map.preannotated
#      Frequency file:               study.freq
#     Penetrance file:               study.pen
# PLINK Phenotype file:               study.phe
Untyped pedigree option: Include all pedigrees whether typed or not
---------------------------------------------

===========================================================
Analysis Class: Dump.

Input Format: BCF v2.2 or higher (bcf, vcf.gz or vcf)
Quantitative  Input Missing Value  -99.99 
Affection     Input Missing Value "-99.99"
Quantitative Output Missing Value      "*"
Affection    Output Missing Value      "*"
Count option: all individuals
Count half-typed individuals' alleles : no 
===========================================================

Input File:                                 studyBCF2.bcf
BCF Arguments:                              -m2 -M2 -v snps -c 1
Sample Index:                               1
read_BCFs: Found file "studyBCF2.bcf"
reading phenotype file study.phe ... (1 columns)
Input Map name: Map, type: average genetic map, units: kosambi centiMorgans
Input Map name: Map, type: male genetic map, units: kosambi centiMorgans
Input Map name: Map, type: female genetic map, units: kosambi centiMorgans
Found 1 possible maps in the map.preannotated file.
Done reading map file: map.preannotated

===========================================================
Total number of loci =  5
2 trait loci 
      1 Affection status locus: 
                A1
      1 Quantitative locus: 
                Q1
      3 Marker loci 
Number of loci found per chromosome (chromosome:number)
   5:3
===========================================================
Reading Mega2 format frequency file: study.freq
Reading Mega2 format penetrance file: study.pen
Reading PLINK .ped file: bed.fam (6 columns).

Checking SAMPLEID consistency within files.
Since 'BCF_Sample_Style' is 1, the VCF header is checked against the .phe file SampleID Column.
Reading pedigree information from bed.fam
21 individuals read from bed.fam
21 individuals with nonmissing phenotypes
0 cases, 0 controls, 0 missing
9 males, 12 females, 0 of unspecified sex
0 founders, 21 non-founders found
Pedigree exclusion option : Include all pedigrees whether typed or not.
Found loops in Ped 2 (#2).
Broke loops in Ped 2 (#2) at Person #8 (original id 2_8 [#8])
===========================================================
Created linkage ped tree.
Recoding pedigree genotypes ... 

===== Messages of type "quant_stat": 
------------------------------------------------------------
Per-pedigree quantitative phenotype summary:
Pedigree     Mean      Std Dev     Minimum    Maximum  #Phenotypes
------------------------------------------------------------
Q1
------------------------------------------------------------
------------------------------------------------------------
1            13.87273    8.76175    0.70000   22.10000       11
2            14.19000    9.26264    0.70000   22.30000       10
===== 3 total records of type "quant_stat" are in MEGA2.LOG


===== Messages of type "quant_stat_sum": 
               Quantitative trait phenotype statistics
-------------------------------------------------------------------------------
QTL            Missing  Minimum   Maximum   Total      Pedigrees    Total
                                            pedigrees  phenotyped   phenotypes
-------------------------------------------------------------------------------
Q1                   0    0.700    22.300           2           2           21
NOTE: The Missing QTL value on input has been assigned as '-99.99'.
-------------------------------------------------------------------------
QTL                 Mean   Std Dev  Skewness  Kurtosis
-------------------------------------------------------------------------
Q1                14.024     8.776    -0.756    -1.324
===========================================================
===== 1 total records of type "quant_stat_sum" are in MEGA2.LOG

===========================================================
Pedigree statistics after selecting chromosomes and marker loci:
Input pedigree file is in post-makeped format.
                                                  Marker Genotypes
                                                  Fully    Half
     Pedigrees   People   Males   Females         Typed    Typed     Total
TOTAL        2       21       9        12            63        0         63
Typed        2       21       9        12
Untyped      0        0       0         0
===========================================================
Database file "../example_db/dbBcf2.db" will be backed up.
Dumping SQLite3 DB to file "../example_db/dbBcf2.db"
SQLite3 database "../example_db/dbBcf2.db" was processed to generate this output.
Output is in ../example_db_bcf2
===========================================================
See run summaries in directory
   MEGA2.LOG, MEGA2.RECODE, MEGA2.ERR, MEGA2.KEYS
The script 'mega2log2html.pl' exited normally.
To view the HTML-formatted run summaries, open
/Users/dweeks/data/src/mega2/mega2_dev_src/example/example/../example_db_bcf2/MEGA2run.html
in a web browser.
===========================================================
